(* * * * * * * * * * * * * * * * * * * * * * * * * * * * * * * * * * * * * * * * *)
(*                                                                             *)
(*         This file has been automatically generated by FeynRules.            *)
(*                                                                             *)
(* * * * * * * * * * * * * * * * * * * * * * * * * * * * * * * * * * * * * * * * *)


FR$ModelInformation={
  ModelName->"DMFVuptype_2015",
  Authors -> {""},
  Version -> "",
  Date -> "",
  Institutions -> {""},
  Emails -> {}};

FR$ClassesTranslation={};

FR$InteractionOrderPerturbativeExpansion={{QCD, 0}, {QED, 0}, {NP, 0}};

FR$GoldstoneList={S[2], S[3]};

(*     Declared indices    *)

IndexRange[ Index[Gluon] ] = NoUnfold[ Range[ 8 ] ]

IndexRange[ Index[SU2W] ] = Range[ 3 ]

IndexRange[ Index[Generation] ] = Range[ 3 ]

IndexRange[ Index[Colour] ] = NoUnfold[ Range[ 3 ] ]

IndexRange[ Index[SU2D] ] = Range[ 2 ]

(*     Declared particles    *)

M$ClassesDescription = {
V[1] == {
    SelfConjugate -> True,
    PropagatorLabel -> "a",
    PropagatorType -> Sine,
    PropagatorArrow -> None,
    Mass -> 0,
    Indices -> {} },

V[2] == {
    SelfConjugate -> True,
    PropagatorLabel -> "Z",
    PropagatorType -> Sine,
    PropagatorArrow -> None,
    Mass -> MZ,
    Indices -> {} },

V[3] == {
    SelfConjugate -> False,
    QuantumNumbers -> {Y},
    PropagatorLabel -> "W",
    PropagatorType -> Sine,
    PropagatorArrow -> Forward,
    Mass -> MW,
    Indices -> {} },

V[4] == {
    SelfConjugate -> True,
    Indices -> {Index[Gluon]},
    PropagatorLabel -> "G",
    PropagatorType -> Cycles,
    PropagatorArrow -> None,
    Mass -> 0 },

U[1] == {
    SelfConjugate -> False,
    QuantumNumbers -> {GhostNumber},
    PropagatorLabel -> "uA",
    PropagatorType -> GhostDash,
    PropagatorArrow -> Forward,
    Mass -> 0,
    Indices -> {} },

U[2] == {
    SelfConjugate -> False,
    QuantumNumbers -> {GhostNumber},
    PropagatorLabel -> "uZ",
    PropagatorType -> GhostDash,
    PropagatorArrow -> Forward,
    Mass -> MZ,
    Indices -> {} },

U[31] == {
    SelfConjugate -> False,
    QuantumNumbers -> {GhostNumber, Y},
    PropagatorLabel -> "uWp",
    PropagatorType -> GhostDash,
    PropagatorArrow -> Forward,
    Mass -> MW,
    Indices -> {} },

U[32] == {
    SelfConjugate -> False,
    QuantumNumbers -> {GhostNumber, -Y},
    PropagatorLabel -> "uWm",
    PropagatorType -> GhostDash,
    PropagatorArrow -> Forward,
    Mass -> MW,
    Indices -> {} },

U[4] == {
    SelfConjugate -> False,
    Indices -> {Index[Gluon]},
    QuantumNumbers -> {GhostNumber},
    PropagatorLabel -> "uG",
    PropagatorType -> GhostDash,
    PropagatorArrow -> Forward,
    Mass -> 0 },

F[1] == {
    Indices -> {Index[Generation]},
    SelfConjugate -> False,
    QuantumNumbers -> {LeptonNumber},
    PropagatorLabel -> "v",
    PropagatorType -> Straight,
    PropagatorArrow -> Forward,
    Mass -> 0 },

F[2] == {
    Indices -> {Index[Generation]},
    SelfConjugate -> False,
    QuantumNumbers -> {-Y, LeptonNumber},
    PropagatorLabel -> "l",
    PropagatorType -> Straight,
    PropagatorArrow -> Forward,
    Mass -> Ml },

F[3] == {
    Indices -> {Index[Generation], Index[Colour]},
    SelfConjugate -> False,
    QuantumNumbers -> {(2*Y)/3},
    PropagatorLabel -> "uq",
    PropagatorType -> Straight,
    PropagatorArrow -> Forward,
    Mass -> Mu },

F[4] == {
    Indices -> {Index[Generation], Index[Colour]},
    SelfConjugate -> False,
    QuantumNumbers -> {-Y/3},
    PropagatorLabel -> "dq",
    PropagatorType -> Straight,
    PropagatorArrow -> Forward,
    Mass -> Md },

S[1] == {
    SelfConjugate -> True,
    PropagatorLabel -> "H",
    PropagatorType -> ScalarDash,
    PropagatorArrow -> None,
    Mass -> MH,
    Indices -> {} },

S[2] == {
    SelfConjugate -> True,
    PropagatorLabel -> "Go",
    PropagatorType -> ScalarDash,
    PropagatorArrow -> None,
    Mass -> MZ,
    Indices -> {} },

S[3] == {
    SelfConjugate -> False,
    QuantumNumbers -> {Y},
    PropagatorLabel -> "GP",
    PropagatorType -> ScalarDash,
    PropagatorArrow -> None,
    Mass -> MW,
    Indices -> {} },

S[100] == {
    SelfConjugate -> False,
    QuantumNumbers -> {(2*Y)/3},
    Indices -> {Index[Colour]},
    PropagatorLabel -> phi,
    PropagatorType -> ScalarDash,
    PropagatorArrow -> Forward,
    Mass -> Mphi },

F[100] == {
    Indices -> {Index[Generation]},
    SelfConjugate -> False,
    PropagatorLabel -> chi,
    PropagatorType -> Straight,
    PropagatorArrow -> Forward,
    Mass -> Mchi }
}


(*        Definitions       *)

GaugeXi[ V[1] ] = GaugeXi[A];
GaugeXi[ V[2] ] = GaugeXi[Z];
GaugeXi[ V[3] ] = GaugeXi[W];
GaugeXi[ V[4] ] = GaugeXi[G];
GaugeXi[ U[1] ] = GaugeXi[A];
GaugeXi[ U[2] ] = GaugeXi[Z];
GaugeXi[ U[31] ] = GaugeXi[W];
GaugeXi[ U[32] ] = GaugeXi[W];
GaugeXi[ U[4] ] = GaugeXi[G];
GaugeXi[ S[1] ] = 1;
GaugeXi[ S[2] ] = GaugeXi[Z];
GaugeXi[ S[3] ] = GaugeXi[W];

MZ[ ___ ] := MZ;
MW[ ___ ] := MW;
Ml[ 1 ] := Me;
Ml[ 2 ] := MMU;
Ml[ 3 ] := MTA;
Mu[ 1, _ ] := MU;
Mu[ 1 ] := MU;
Mu[ 2, _ ] := MC;
Mu[ 2 ] := MC;
Mu[ 3, _ ] := MT;
Mu[ 3 ] := MT;
Md[ 1, _ ] := MD;
Md[ 1 ] := MD;
Md[ 2, _ ] := MS;
Md[ 2 ] := MS;
Md[ 3, _ ] := MB;
Md[ 3 ] := MB;
MH[ ___ ] := MH;
Mphi[ ___ ] := Mphi;
Mchi[ 1 ] := Mchiu
Mchi[ 2 ] := Mchic
Mchi[ 3 ] := Mchit


TheLabel[ V[4, {__}] ] := TheLabel[V[4]];
TheLabel[ U[4, {__}] ] := TheLabel[U[4]];
TheLabel[ F[1, {1}] ] := "ve";
TheLabel[ F[1, {2}] ] := "vm";
TheLabel[ F[1, {3}] ] := "vt";
TheLabel[ F[2, {1}] ] := "e";
TheLabel[ F[2, {2}] ] := "mu";
TheLabel[ F[2, {3}] ] := "ta";
TheLabel[ F[3, {1, _}] ] := "u";
TheLabel[ F[3, {1}] ] := "u";
TheLabel[ F[3, {2, _}] ] := "c";
TheLabel[ F[3, {2}] ] := "c";
TheLabel[ F[3, {3, _}] ] := "t";
TheLabel[ F[3, {3}] ] := "t";
TheLabel[ F[4, {1, _}] ] := "d";
TheLabel[ F[4, {1}] ] := "d";
TheLabel[ F[4, {2, _}] ] := "s";
TheLabel[ F[4, {2}] ] := "s";
TheLabel[ F[4, {3, _}] ] := "b";
TheLabel[ F[4, {3}] ] := "b";
TheLabel[ S[100, {__}] ] := TheLabel[S[100]];
TheLabel[ F[100, {1}] ] := "chiu"
TheLabel[ F[100, {2}] ] := "chic"
TheLabel[ F[100, {3}] ] := "chit"


(*      Couplings (calculated by FeynRules)      *)

M$CouplingMatrices = {

C[ S[2] , S[2] , S[2] , S[2] ] == {{(-6*I)*lam, 0}},

C[ S[2] , S[2] , S[3] , -S[3] ] == {{(-2*I)*lam, 0}},

C[ S[3] , S[3] , -S[3] , -S[3] ] == {{(-4*I)*lam, 0}},

C[ S[2] , S[2] , S[1] , S[1] ] == {{(-2*I)*lam, 0}},

C[ S[3] , -S[3] , S[1] , S[1] ] == {{(-2*I)*lam, 0}},

C[ S[1] , S[1] , S[1] , S[1] ] == {{(-6*I)*lam, 0}},

C[ S[1] , S[1] , S[100, {e3x1}] , -S[100, {e4x1}] ] == {{(2*I)*lambdaHphi, 0}},

C[ S[100, {e1x1}] , S[100, {e2x1}] , -S[100, {e3x1}] , -S[100, {e4x1}] ] == {{(4*I)*lambdaphiphi, 0}},

C[ S[2] , S[2] , S[1] ] == {{(-2*I)*lam*vev, 0}},

C[ S[3] , -S[3] , S[1] ] == {{(-2*I)*lam*vev, 0}},

C[ S[1] , S[1] , S[1] ] == {{(-6*I)*lam*vev, 0}},

C[ S[3] , -S[3] , V[1] , V[1] ] == {{(2*I)*EL^2, 0}},

C[ S[3] , -S[3] , V[1] ] == {{(-I)*gc13, 0}, {I*gc13, 0}},

C[ -U[1] , U[32] , V[3] ] == {{I*gc14, 0}, {I*gc14, 0}, {0, 0}},

C[ -U[1] , U[31] , -V[3] ] == {{I*gc15, 0}, {I*gc15, 0}, {0, 0}},

C[ -S[3] , -U[32] , U[1] ] == {{(EL^2*vev)/(2*sw), 0}},

C[ -U[32] , U[1] , -V[3] ] == {{I*gc17, 0}, {I*gc17, 0}, {0, 0}},

C[ S[2] , -U[32] , U[32] ] == {{-(EL^2*vev)/(4*sw^2), 0}},

C[ S[1] , -U[32] , U[32] ] == {{((-I/4)*EL^2*vev)/sw^2, 0}},

C[ -U[32] , U[32] , V[1] ] == {{I*gc20, 0}, {I*gc20, 0}, {0, 0}},

C[ -U[32] , U[32] , V[2] ] == {{I*gc21, 0}, {I*gc21, 0}, {0, 0}},

C[ -S[3] , -U[32] , U[2] ] == {{(EL^2*(cw - sw)*(cw + sw)*vev)/(4*cw*sw^2), 0}},

C[ -U[32] , U[2] , -V[3] ] == {{I*gc23, 0}, {I*gc23, 0}, {0, 0}},

C[ S[3] , -U[31] , U[1] ] == {{-(EL^2*vev)/(2*sw), 0}},

C[ -U[31] , U[1] , V[3] ] == {{I*gc25, 0}, {I*gc25, 0}, {0, 0}},

C[ S[2] , -U[31] , U[31] ] == {{(EL^2*vev)/(4*sw^2), 0}},

C[ S[1] , -U[31] , U[31] ] == {{((-I/4)*EL^2*vev)/sw^2, 0}},

C[ -U[31] , U[31] , V[1] ] == {{I*gc28, 0}, {I*gc28, 0}, {0, 0}},

C[ -U[31] , U[31] , V[2] ] == {{I*gc29, 0}, {I*gc29, 0}, {0, 0}},

C[ S[3] , -U[31] , U[2] ] == {{-(EL^2*(cw - sw)*(cw + sw)*vev)/(4*cw*sw^2), 0}},

C[ -U[31] , U[2] , V[3] ] == {{I*gc31, 0}, {I*gc31, 0}, {0, 0}},

C[ S[3] , -U[2] , U[32] ] == {{(EL^2*(cw^2 + sw^2)*vev)/(4*cw*sw^2), 0}},

C[ -U[2] , U[32] , V[3] ] == {{I*gc33, 0}, {I*gc33, 0}, {0, 0}},

C[ -S[3] , -U[2] , U[31] ] == {{-(EL^2*(cw^2 + sw^2)*vev)/(4*cw*sw^2), 0}},

C[ -U[2] , U[31] , -V[3] ] == {{I*gc35, 0}, {I*gc35, 0}, {0, 0}},

C[ S[1] , -U[2] , U[2] ] == {{((-I/4)*EL^2*(cw^2 + sw^2)^2*vev)/(cw^2*sw^2), 0}},

C[ -U[4, {e1x1}] , U[4, {e2x1}] , V[4, {e3x2}] ] == {{gc37*SUNF[e3x2, e1x1, e2x1], 0}, {gc37*SUNF[e3x2, e1x1, e2x1], 0}, {0, 0}},

C[ V[4, {e1x2}] , V[4, {e2x2}] , V[4, {e3x2}] ] == {{-(gc38*SUNF[e1x2, e2x2, e3x2]), 0}, {gc38*SUNF[e1x2, e2x2, e3x2], 0}, {gc38*SUNF[e1x2, e2x2, e3x2], 0}, {-(gc38*SUNF[e1x2, e2x2, e3x2]), 0}, {-(gc38*SUNF[e1x2, e2x2, e3x2]), 0}, {gc38*SUNF[e1x2, e2x2, e3x2], 0}},

C[ V[4, {e1x2}] , V[4, {e2x2}] , V[4, {e3x2}] , V[4, {e4x2}] ] == {{(-I)*gc39*(SUNF[e1x2, e2x2, e3x2, e4x2] + SUNF[e1x2, e3x2, e2x2, e4x2]), 0}, {I*gc39*(SUNF[e1x2, e2x2, e3x2, e4x2] - SUNF[e1x2, e4x2, e2x2, e3x2]), 0}, {I*gc39*(SUNF[e1x2, e3x2, e2x2, e4x2] + SUNF[e1x2, e4x2, e2x2, e3x2]), 0}},

C[ S[100, {e2x1}] , -S[100, {e3x1}] , V[1] ] == {{(-I)*gc40*IndexDelta[e2x1, e3x1], 0}, {I*gc40*IndexDelta[e2x1, e3x1], 0}},

C[ S[100, {e3x1}] , -S[100, {e4x1}] , V[1] , V[1] ] == {{((8*I)/9)*EL^2*IndexDelta[e3x1, e4x1], 0}},

C[ -F[4, {e1x2, e1x3}] , F[3, {e2x2, e2x3}] , -S[3] ] == {{gc42L[e1x2, e2x2]*IndexDelta[e1x3, e2x3], 0}, {gc42R[e1x2, e2x2]*IndexDelta[e1x3, e2x3], 0}},

C[ -F[4, {e1x2, e1x3}] , F[4, {e2x2, e2x3}] , S[2] ] == {{gc43L[e1x2, e2x2]*IndexDelta[e1x3, e2x3], 0}, {gc43R[e1x2, e2x2]*IndexDelta[e1x3, e2x3], 0}},

C[ -F[4, {e1x2, e1x3}] , F[4, {e2x2, e2x3}] , S[1] ] == {{I*gc44L[e1x2, e2x2]*IndexDelta[e1x3, e2x3], 0}, {I*gc44R[e1x2, e2x2]*IndexDelta[e1x3, e2x3], 0}},

C[ -F[2, {e1x2}] , F[1, {e2x2}] , -S[3] ] == {{gc45[e1x2, e2x2], 0}, {0, 0}},

C[ -F[2, {e1x2}] , F[2, {e2x2}] , S[2] ] == {{gc46L[e1x2, e2x2], 0}, {gc46R[e1x2, e2x2], 0}},

C[ -F[2, {e1x2}] , F[2, {e2x2}] , S[1] ] == {{I*gc47L[e1x2, e2x2], 0}, {I*gc47R[e1x2, e2x2], 0}},

C[ -F[3, {e1x2, e1x3}] , F[4, {e2x2, e2x3}] , S[3] ] == {{gc48L[e1x2, e2x2]*IndexDelta[e1x3, e2x3], 0}, {gc48R[e1x2, e2x2]*IndexDelta[e1x3, e2x3], 0}},

C[ -F[3, {e1x2, e1x3}] , F[3, {e2x2, e2x3}] , S[2] ] == {{gc49L[e1x2, e2x2]*IndexDelta[e1x3, e2x3], 0}, {gc49R[e1x2, e2x2]*IndexDelta[e1x3, e2x3], 0}},

C[ -F[3, {e1x2, e1x3}] , F[3, {e2x2, e2x3}] , S[1] ] == {{I*gc50L[e1x2, e2x2]*IndexDelta[e1x3, e2x3], 0}, {I*gc50R[e1x2, e2x2]*IndexDelta[e1x3, e2x3], 0}},

C[ -F[3, {e1x2, e1x3}] , F[100, {e2x2}] , S[100, {e3x1}] ] == {{I*gc51[e1x2, e2x2]*IndexDelta[e1x3, e3x1], 0}, {0, 0}},

C[ -F[100, {e1x2}] , F[3, {e2x2, e2x3}] , -S[100, {e3x1}] ] == {{0, 0}, {I*gc52R[e1x2, e2x2]*IndexDelta[e2x3, e3x1], 0}},

C[ S[100, {e2x1}] , -S[100, {e3x1}] , V[4, {e1x2}] ] == {{(-I)*gc53*SUNT[e1x2, e3x1, e2x1], 0}, {I*gc53*SUNT[e1x2, e3x1, e2x1], 0}},

C[ S[100, {e3x1}] , -S[100, {e4x1}] , V[1] , V[4, {e2x2}] ] == {{((4*I)/3)*EL*GS*SUNT[e2x2, e4x1, e3x1], 0}},

C[ S[100, {e3x1}] , -S[100, {e4x1}] , V[4, {e1x2}] , V[4, {e2x2}] ] == {{I*GS^2*(SUNT[e1x2, e2x2, e4x1, e3x1] + SUNT[e2x2, e1x2, e4x1, e3x1]), 0}},

C[ S[2] , -S[3] , V[1] , V[3] ] == {{((-I/2)*EL^2)/sw, 0}},

C[ -S[3] , S[1] , V[1] , V[3] ] == {{-EL^2/(2*sw), 0}},

C[ -S[3] , V[1] , V[3] ] == {{-(EL^2*vev)/(2*sw), 0}},

C[ S[2] , -S[3] , V[3] ] == {{(-I)*gc59, 0}, {I*gc59, 0}},

C[ -S[3] , S[1] , V[3] ] == {{-gc60, 0}, {gc60, 0}},

C[ V[1] , V[3] , -V[3] ] == {{(-I)*gc61, 0}, {I*gc61, 0}, {I*gc61, 0}, {(-I)*gc61, 0}, {(-I)*gc61, 0}, {I*gc61, 0}},

C[ S[2] , S[3] , V[1] , -V[3] ] == {{((-I/2)*EL^2)/sw, 0}},

C[ S[3] , S[1] , V[1] , -V[3] ] == {{EL^2/(2*sw), 0}},

C[ S[3] , V[1] , -V[3] ] == {{(EL^2*vev)/(2*sw), 0}},

C[ S[2] , S[3] , -V[3] ] == {{(-I)*gc65, 0}, {I*gc65, 0}},

C[ S[3] , S[1] , -V[3] ] == {{-gc66, 0}, {gc66, 0}},

C[ S[2] , S[2] , V[3] , -V[3] ] == {{((I/2)*EL^2)/sw^2, 0}},

C[ S[3] , -S[3] , V[3] , -V[3] ] == {{((I/2)*EL^2)/sw^2, 0}},

C[ S[1] , S[1] , V[3] , -V[3] ] == {{((I/2)*EL^2)/sw^2, 0}},

C[ S[1] , V[3] , -V[3] ] == {{((I/2)*EL^2*vev)/sw^2, 0}},

C[ V[1] , V[1] , V[3] , -V[3] ] == {{(-I)*gc71, 0}, {(-I)*gc71, 0}, {(2*I)*gc71, 0}},

C[ V[3] , -V[3] , V[2] ] == {{(-I)*gc72, 0}, {I*gc72, 0}, {I*gc72, 0}, {(-I)*gc72, 0}, {(-I)*gc72, 0}, {I*gc72, 0}},

C[ V[3] , V[3] , -V[3] , -V[3] ] == {{(-I)*gc73, 0}, {(-I)*gc73, 0}, {(2*I)*gc73, 0}},

C[ -F[1, {e1x2}] , F[2, {e2x2}] , S[3] ] == {{0, 0}, {gc74R[e1x2, e2x2], 0}},

C[ S[3] , -S[3] , V[1] , V[2] ] == {{(I*EL^2*(cw - sw)*(cw + sw))/(cw*sw), 0}},

C[ S[2] , S[1] , V[2] ] == {{-gc76, 0}, {gc76, 0}},

C[ S[3] , -S[3] , V[2] ] == {{(-I)*gc77, 0}, {I*gc77, 0}},

C[ S[100, {e1x1}] , -S[100, {e2x1}] , V[2] ] == {{(-I)*gc78*IndexDelta[e1x1, e2x1], 0}, {I*gc78*IndexDelta[e1x1, e2x1], 0}},

C[ S[100, {e2x1}] , -S[100, {e3x1}] , V[1] , V[2] ] == {{(((-8*I)/9)*EL^2*sw*IndexDelta[e2x1, e3x1])/cw, 0}},

C[ S[100, {e2x1}] , -S[100, {e3x1}] , V[4, {e1x2}] , V[2] ] == {{(((-4*I)/3)*EL*GS*sw*SUNT[e1x2, e3x1, e2x1])/cw, 0}},

C[ S[2] , -S[3] , V[3] , V[2] ] == {{((I/2)*EL^2)/cw, 0}},

C[ -S[3] , S[1] , V[3] , V[2] ] == {{EL^2/(2*cw), 0}},

C[ -S[3] , V[3] , V[2] ] == {{(EL^2*vev)/(2*cw), 0}},

C[ S[2] , S[3] , -V[3] , V[2] ] == {{((I/2)*EL^2)/cw, 0}},

C[ S[3] , S[1] , -V[3] , V[2] ] == {{-EL^2/(2*cw), 0}},

C[ S[3] , -V[3] , V[2] ] == {{-(EL^2*vev)/(2*cw), 0}},

C[ V[1] , V[3] , -V[3] , V[2] ] == {{(-2*I)*gc87, 0}, {I*gc87, 0}, {I*gc87, 0}},

C[ S[2] , S[2] , V[2] , V[2] ] == {{((I/2)*EL^2*(cw^2 + sw^2)^2)/(cw^2*sw^2), 0}},

C[ S[3] , -S[3] , V[2] , V[2] ] == {{((I/2)*EL^2*(cw - sw)^2*(cw + sw)^2)/(cw^2*sw^2), 0}},

C[ S[1] , S[1] , V[2] , V[2] ] == {{((I/2)*EL^2*(cw^2 + sw^2)^2)/(cw^2*sw^2), 0}},

C[ S[1] , V[2] , V[2] ] == {{((I/2)*EL^2*(cw^2 + sw^2)^2*vev)/(cw^2*sw^2), 0}},

C[ S[100, {e1x1}] , -S[100, {e2x1}] , V[2] , V[2] ] == {{(((8*I)/9)*EL^2*sw^2*IndexDelta[e1x1, e2x1])/cw^2, 0}},

C[ V[3] , -V[3] , V[2] , V[2] ] == {{(-I)*gc93, 0}, {(-I)*gc93, 0}, {(2*I)*gc93, 0}},

C[ -F[2, {e1x2}] , F[2, {e2x2}] , V[1] ] == {{I*gc94*IndexDelta[e1x2, e2x2], 0}, {I*gc94*IndexDelta[e1x2, e2x2], 0}},

C[ -F[3, {e1x2, e1x3}] , F[3, {e2x2, e2x3}] , V[1] ] == {{I*gc95*IndexDelta[e1x2, e2x2]*IndexDelta[e1x3, e2x3], 0}, {I*gc95*IndexDelta[e1x2, e2x2]*IndexDelta[e1x3, e2x3], 0}},

C[ -F[4, {e1x2, e1x3}] , F[4, {e2x2, e2x3}] , V[1] ] == {{I*gc96*IndexDelta[e1x2, e2x2]*IndexDelta[e1x3, e2x3], 0}, {I*gc96*IndexDelta[e1x2, e2x2]*IndexDelta[e1x3, e2x3], 0}},

C[ -F[3, {e1x2, e1x3}] , F[3, {e2x2, e2x3}] , V[4, {e3x2}] ] == {{I*gc97*IndexDelta[e1x2, e2x2]*SUNT[e3x2, e1x3, e2x3], 0}, {I*gc97*IndexDelta[e1x2, e2x2]*SUNT[e3x2, e1x3, e2x3], 0}},

C[ -F[4, {e1x2, e1x3}] , F[4, {e2x2, e2x3}] , V[4, {e3x2}] ] == {{I*gc98*IndexDelta[e1x2, e2x2]*SUNT[e3x2, e1x3, e2x3], 0}, {I*gc98*IndexDelta[e1x2, e2x2]*SUNT[e3x2, e1x3, e2x3], 0}},

C[ -F[3, {e1x2, e1x3}] , F[4, {e2x2, e2x3}] , V[3] ] == {{I*gc99[e1x2, e2x2]*IndexDelta[e1x3, e2x3], 0}, {0, 0}},

C[ -F[4, {e1x2, e1x3}] , F[3, {e2x2, e2x3}] , -V[3] ] == {{I*gc100[e1x2, e2x2]*IndexDelta[e1x3, e2x3], 0}, {0, 0}},

C[ -F[1, {e1x2}] , F[2, {e2x2}] , V[3] ] == {{I*gc101*IndexDelta[e1x2, e2x2], 0}, {0, 0}},

C[ -F[2, {e1x2}] , F[1, {e2x2}] , -V[3] ] == {{I*gc102*IndexDelta[e1x2, e2x2], 0}, {0, 0}},

C[ -F[3, {e1x2, e1x3}] , F[3, {e2x2, e2x3}] , V[2] ] == {{I*gc103L*IndexDelta[e1x2, e2x2]*IndexDelta[e1x3, e2x3], 0}, {I*gc103R*IndexDelta[e1x2, e2x2]*IndexDelta[e1x3, e2x3], 0}},

C[ -F[4, {e1x2, e1x3}] , F[4, {e2x2, e2x3}] , V[2] ] == {{I*gc104L*IndexDelta[e1x2, e2x2]*IndexDelta[e1x3, e2x3], 0}, {I*gc104R*IndexDelta[e1x2, e2x2]*IndexDelta[e1x3, e2x3], 0}},

C[ -F[1, {e1x2}] , F[1, {e2x2}] , V[2] ] == {{I*gc105*IndexDelta[e1x2, e2x2], 0}, {0, 0}},

C[ -F[2, {e1x2}] , F[2, {e2x2}] , V[2] ] == {{I*gc106L*IndexDelta[e1x2, e2x2], 0}, {I*gc106R*IndexDelta[e1x2, e2x2], 0}}

}

(* * * * * * * * * * * * * * * * * * * * * * * * * * * * * * * * * * * *)

(* Parameter replacement lists (These lists were created by FeynRules) *)

(* FA Couplings *)

M$FACouplings = {
     gc13 -> -EL,
     gc14 -> EL,
     gc15 -> -EL,
     gc17 -> EL,
     gc20 -> -EL,
     gc21 -> -((cw*EL)/sw),
     gc23 -> (cw*EL)/sw,
     gc25 -> -EL,
     gc28 -> EL,
     gc29 -> (cw*EL)/sw,
     gc31 -> -((cw*EL)/sw),
     gc33 -> (cw*EL)/sw,
     gc35 -> -((cw*EL)/sw),
     gc37 -> GS,
     gc38 -> -GS,
     gc39 -> -GS^2,
     gc40 -> (-2*EL)/3,
     gc42L[e1x2_, e2x2_] -> IndexSum[Conjugate[CKM[e2x2, Generation$1]]*Conjugate[yd[Generation$1, e1x2]], {Generation$1, 1, 3}],
     gc42R[e1x2_, e2x2_] -> -IndexSum[Conjugate[CKM[Generation$1, e1x2]]*yu[Generation$1, e2x2], {Generation$1, 1, 3}],
     gc43L[e1x2_, e2x2_] -> -(Conjugate[yd[e2x2, e1x2]]/Sqrt[2]),
     gc43R[e1x2_, e2x2_] -> yd[e1x2, e2x2]/Sqrt[2],
     gc44L[e1x2_, e2x2_] -> -(Conjugate[yd[e2x2, e1x2]]/Sqrt[2]),
     gc44R[e1x2_, e2x2_] -> -(yd[e1x2, e2x2]/Sqrt[2]),
     gc45[e1x2_, e2x2_] -> Conjugate[yl[e2x2, e1x2]],
     gc46L[e1x2_, e2x2_] -> -(Conjugate[yl[e2x2, e1x2]]/Sqrt[2]),
     gc46R[e1x2_, e2x2_] -> yl[e1x2, e2x2]/Sqrt[2],
     gc47L[e1x2_, e2x2_] -> -(Conjugate[yl[e2x2, e1x2]]/Sqrt[2]),
     gc47R[e1x2_, e2x2_] -> -(yl[e1x2, e2x2]/Sqrt[2]),
     gc48L[e1x2_, e2x2_] -> IndexSum[CKM[Generation$1, e2x2]*Conjugate[yu[Generation$1, e1x2]], {Generation$1, 1, 3}],
     gc48R[e1x2_, e2x2_] -> -IndexSum[CKM[e1x2, Generation$1]*yd[Generation$1, e2x2], {Generation$1, 1, 3}],
     gc49L[e1x2_, e2x2_] -> Conjugate[yu[e2x2, e1x2]]/Sqrt[2],
     gc49R[e1x2_, e2x2_] -> -(yu[e1x2, e2x2]/Sqrt[2]),
     gc50L[e1x2_, e2x2_] -> -(Conjugate[yu[e2x2, e1x2]]/Sqrt[2]),
     gc50R[e1x2_, e2x2_] -> -(yu[e1x2, e2x2]/Sqrt[2]),
     gc51[e1x2_, e2x2_] -> lambda[e1x2, e2x2],
     gc52R[e1x2_, e2x2_] -> Conjugate[lambda[e2x2, e1x2]],
     gc53 -> -GS,
     gc59 -> EL/(2*sw),
     gc60 -> -EL/(2*sw),
     gc61 -> EL,
     gc65 -> -EL/(2*sw),
     gc66 -> -EL/(2*sw),
     gc71 -> -EL^2,
     gc72 -> (cw*EL)/sw,
     gc73 -> EL^2/sw^2,
     gc74R[e1x2_, e2x2_] -> -yl[e1x2, e2x2],
     gc76 -> -(EL*(cw^2 + sw^2))/(2*cw*sw),
     gc77 -> -(cw*EL)/(2*sw) + (EL*sw)/(2*cw),
     gc78 -> (2*EL*sw)/(3*cw),
     gc87 -> (cw*EL^2)/sw,
     gc93 -> -((cw^2*EL^2)/sw^2),
     gc94 -> -EL,
     gc95 -> (2*EL)/3,
     gc96 -> -EL/3,
     gc97 -> GS,
     gc98 -> GS,
     gc99[e1x2_, e2x2_] -> (EL*CKM[e1x2, e2x2])/(Sqrt[2]*sw),
     gc100[e1x2_, e2x2_] -> (EL*Conjugate[CKM[e2x2, e1x2]])/(Sqrt[2]*sw),
     gc101 -> EL/(Sqrt[2]*sw),
     gc102 -> EL/(Sqrt[2]*sw),
     gc103L -> (cw*EL)/(2*sw) - (EL*sw)/(6*cw),
     gc103R -> (-2*EL*sw)/(3*cw),
     gc104L -> -(EL*(3*cw^2 + sw^2))/(6*cw*sw),
     gc104R -> (EL*sw)/(3*cw),
     gc105 -> (EL*(cw^2 + sw^2))/(2*cw*sw),
     gc106L -> -(EL*(cw^2 - sw^2))/(2*cw*sw),
     gc106R -> (EL*sw)/cw};

